0 info it worked if it ends with ok
1 verbose cli [ '/home/alumno/.nvm/versions/node/v6.0.0/bin/node',
1 verbose cli   '/home/alumno/.nvm/versions/node/v6.0.0/bin/npm',
1 verbose cli   'start' ]
2 info using npm@3.8.6
3 info using node@v6.0.0
4 verbose run-script [ 'prestart', 'start', 'poststart' ]
5 info lifecycle polymerdesdenode@1.0.0~prestart: polymerdesdenode@1.0.0
6 silly lifecycle polymerdesdenode@1.0.0~prestart: no script for prestart, continuing
7 info lifecycle polymerdesdenode@1.0.0~start: polymerdesdenode@1.0.0
8 verbose lifecycle polymerdesdenode@1.0.0~start: unsafe-perm in lifecycle true
9 verbose lifecycle polymerdesdenode@1.0.0~start: PATH: /home/alumno/.nvm/versions/node/v6.0.0/lib/node_modules/npm/bin/node-gyp-bin:/home/alumno/polymer/node_modules/.bin:/home/alumno/.nvm/versions/node/v6.0.0/bin:/home/alumno/.nvm/versions/node/v6.0.0/bin:/home/alumno/bin:/home/alumno/.local/bin:/usr/local/sbin:/usr/local/bin:/usr/sbin:/usr/bin:/sbin:/bin:/usr/games:/usr/local/games:/snap/bin
10 verbose lifecycle polymerdesdenode@1.0.0~start: CWD: /home/alumno/polymer
11 silly lifecycle polymerdesdenode@1.0.0~start: Args: [ '-c', 'node server.js' ]
12 silly lifecycle polymerdesdenode@1.0.0~start: Returned: code: 1  signal: null
13 info lifecycle polymerdesdenode@1.0.0~start: Failed to exec start script
14 verbose stack Error: polymerdesdenode@1.0.0 start: `node server.js`
14 verbose stack Exit status 1
14 verbose stack     at EventEmitter.<anonymous> (/home/alumno/.nvm/versions/node/v6.0.0/lib/node_modules/npm/lib/utils/lifecycle.js:239:16)
14 verbose stack     at emitTwo (events.js:106:13)
14 verbose stack     at EventEmitter.emit (events.js:191:7)
14 verbose stack     at ChildProcess.<anonymous> (/home/alumno/.nvm/versions/node/v6.0.0/lib/node_modules/npm/lib/utils/spawn.js:24:14)
14 verbose stack     at emitTwo (events.js:106:13)
14 verbose stack     at ChildProcess.emit (events.js:191:7)
14 verbose stack     at maybeClose (internal/child_process.js:850:16)
14 verbose stack     at Process.ChildProcess._handle.onexit (internal/child_process.js:215:5)
15 verbose pkgid polymerdesdenode@1.0.0
16 verbose cwd /home/alumno/polymer
17 error Linux 4.15.0-91-generic
18 error argv "/home/alumno/.nvm/versions/node/v6.0.0/bin/node" "/home/alumno/.nvm/versions/node/v6.0.0/bin/npm" "start"
19 error node v6.0.0
20 error npm  v3.8.6
21 error code ELIFECYCLE
22 error polymerdesdenode@1.0.0 start: `node server.js`
22 error Exit status 1
23 error Failed at the polymerdesdenode@1.0.0 start script 'node server.js'.
23 error Make sure you have the latest version of node.js and npm installed.
23 error If you do, this is most likely a problem with the polymerdesdenode package,
23 error not with npm itself.
23 error Tell the author that this fails on your system:
23 error     node server.js
23 error You can get information on how to open an issue for this project with:
23 error     npm bugs polymerdesdenode
23 error Or if that isn't available, you can get their info via:
23 error     npm owner ls polymerdesdenode
23 error There is likely additional logging output above.
24 verbose exit [ 1, true ]
